<?xml version="1.0" encoding="UTF-8"?>
<svg width="16px" height="16px" viewBox="0 0 16 16" version="1.1" xmlns="http://www.w3.org/2000/svg" xmlns:xlink="http://www.w3.org/1999/xlink">
    <!-- Generator: sketchtool 55.2 (78181) - https://sketchapp.com -->
    <title>41A3F158-A8FE-4A76-BFD0-9A17847B0D99</title>
    <desc>Created with sketchtool.</desc>
    <g id="Design-Production" stroke="none" stroke-width="1" fill="none" fill-rule="evenodd">
        <g id="Styles" transform="translate(-240.000000, -1281.000000)" fill="#FFFFFF">
            <g id="Icons" transform="translate(30.000000, 1185.000000)">
                <g id="Icons-White" transform="translate(0.000000, 89.000000)">
                    <g id="icon-eqx-logomark" transform="translate(168.000000, 0.000000)">
                        <path d="M45.2643678,15 C45.2643678,16.169279 45.6896552,17.2392894 46.3928945,18.0658307 L44.4514107,20.7596656 C42.9414838,19.3040752 42,17.262278 42,15 C42,10.5809822 45.5820272,7 50,7 C51.3396029,7 52.6008359,7.33019854 53.7126437,7.91222571 L51.7701149,10.6060606 C51.2225705,10.3866249 50.6269592,10.2633229 50,10.2633229 C47.384535,10.2633229 45.2643678,12.3834901 45.2643678,15 Z M53.6426332,11.9717868 L55.5872518,9.27481714 C57.07628,10.7272727 58,12.7554859 58,15 C58,19.4179728 54.4190178,23 50,23 C48.6792059,23 47.4326019,22.677116 46.3343783,22.1107628 L48.2810867,19.4127482 C48.8129572,19.6196447 49.3918495,19.7356322 50,19.7356322 C52.6165099,19.7356322 54.7366771,17.615465 54.7366771,15 C54.7366771,13.8484848 54.3260188,12.7931034 53.6426332,11.9717868 Z" id="icon-eqx-logomark-white"></path>
                    </g>
                </g>
            </g>
        </g>
    </g>
</svg>